Thermal tolerance of A. cervicornis across 6 Florida coral nurseries
…
ncoral
ngeno

228
175

res %>%
  group_by(nursery, name) %>%
  summarize(n = n()) %>%
  arrange(-n)

## # A tibble: 228 x 3
## # Groups:   nursery [6]
##    nursery name      n
##    <fct>   <chr> <int>
##  1 MML     ML1       1
##  2 MML     ML10      1
##  3 MML     ML13      1
##  4 MML     ML20      1
##  5 MML     ML29      1
##  6 MML     ML3       1
##  7 MML     ML31      1
##  8 MML     ML34      1
##  9 MML     ML36      1
## 10 MML     ML38      1
## #  with 218 more rows
…
